…
df5.2 <- poison %>% 
  dplyr::select("Age", "Time") %>% 
  pivot_longer(c(1:2), names_to = "var", values_to = "val") %>% 
  mutate(var = as.factor(var),
         val = as.factor(val)) %>% 
  group_by(var, val) %>% 
  summarise(count = n()) %>% 
  ungroup()
  
df5.2
```

    ## # A tibble: 34 x 3
    ##    var   val   count
    ##    <fct> <fct> <int>
    ##  1 Age   4         1
    ##  2 Age   5         8
    ##  3 Age   6         7
    ##  4 Age   7         7
    ##  5 Age   8         6
    ##  6 Age   9         7
    ##  7 Age   10        6
    ##  8 Age   11        5
    ##  9 Age   36        1
    ## 10 Age   45        1
    ## # ... with 24 more rows
…
